<?xml version="1.0" encoding="UTF-8" standalone="no"?>
<!-- Created with Inkscape (http://www.inkscape.org/) -->

<svg
   width="297mm"
   height="210mm"
   viewBox="0 0 297 210"
   version="1.1"
   id="svg893"
   inkscape:version="1.1.2 (0a00cf5339, 2022-02-04)"
   sodipodi:docname="conexiones_proto_2_v1.svg"
   inkscape:export-filename="/home/willy/Projects/datalogger/datasheets/conexiones_proto_2_v1.png"
   inkscape:export-xdpi="96"
   inkscape:export-ydpi="96"
   xmlns:inkscape="http://www.inkscape.org/namespaces/inkscape"
   xmlns:sodipodi="http://sodipodi.sourceforge.net/DTD/sodipodi-0.dtd"
   xmlns="http://www.w3.org/2000/svg"
   xmlns:svg="http://www.w3.org/2000/svg">
  <sodipodi:namedview
     id="namedview895"
     pagecolor="#ffffff"
     bordercolor="#666666"
     borderopacity="1.0"
     inkscape:pageshadow="2"
     inkscape:pageopacity="0.0"
     inkscape:pagecheckerboard="0"
     inkscape:document-units="mm"
     showgrid="false"
     inkscape:zoom="1.4140484"
     inkscape:cx="345.46201"
     inkscape:cy="185.63721"
     inkscape:window-width="1920"
     inkscape:window-height="1048"
     inkscape:window-x="0"
     inkscape:window-y="32"
     inkscape:window-maximized="1"
     inkscape:current-layer="layer1" />
  <defs
     id="defs890" />
  <g
     inkscape:label="Layer 1"
     inkscape:groupmode="layer"
     id="layer1">
    <path
       style="fill:none;stroke:#ff0000;stroke-width:0.912193;stroke-linecap:butt;stroke-linejoin:miter;stroke-miterlimit:4;stroke-dasharray:none;stroke-opacity:1"
       d="m 47.262903,65.161068 h 94.883957 l 0.064,-23.348349"
       id="path318889"
       sodipodi:nodetypes="ccc" />
    <path
       style="fill:none;stroke:#d4aa00;stroke-width:0.912193;stroke-linecap:butt;stroke-linejoin:round;stroke-miterlimit:4;stroke-dasharray:none;stroke-opacity:1"
       d="m 47.489313,49.704588 79.060807,0 0.0886,-7.824675"
       id="path271466"
       sodipodi:nodetypes="ccc" />
    <path
       style="opacity:0.998;fill:#000000;fill-opacity:1;stroke:none;stroke-width:4.15748"
       id="path3965-097-1-2-71"
       sodipodi:type="arc"
       sodipodi:cx="47.490822"
       sodipodi:cy="49.769875"
       sodipodi:rx="1.0940576"
       sodipodi:ry="1.0942342"
       sodipodi:start="4.712389"
       sodipodi:end="4.7110102"
       sodipodi:open="true"
       sodipodi:arc-type="arc"
       inkscape:export-filename="/home/willy/Projects/datalogger/datasheets/ESP8266_display.png"
       inkscape:export-xdpi="150"
       inkscape:export-ydpi="150"
       d="m 47.490822,48.67564 a 1.0940576,1.0942342 0 0 1 1.094057,1.093857 1.0940576,1.0942342 0 0 1 -1.093303,1.094612 1.0940576,1.0942342 0 0 1 -1.094811,-1.093103 1.0940576,1.0942342 0 0 1 1.092548,-1.095365" />
    <path
       style="fill:none;stroke:#b3b3b3;stroke-width:0.764873;stroke-linecap:butt;stroke-linejoin:round;stroke-miterlimit:4;stroke-dasharray:none;stroke-opacity:1"
       d="m 47.489313,56.866796 h 85.742977 l 0,-14.735316"
       id="path271581"
       sodipodi:nodetypes="cc" />
    <path
       style="opacity:0.998;fill:#000000;fill-opacity:1;stroke:none;stroke-width:4.15748"
       id="path3965-097-1-2-1"
       sodipodi:type="arc"
       sodipodi:cx="47.490822"
       sodipodi:cy="56.915314"
       sodipodi:rx="1.0940576"
       sodipodi:ry="1.0942342"
       sodipodi:start="4.712389"
       sodipodi:end="4.7110102"
       sodipodi:open="true"
       sodipodi:arc-type="arc"
       inkscape:export-filename="/home/willy/Projects/datalogger/datasheets/ESP8266_display.png"
       inkscape:export-xdpi="150"
       inkscape:export-ydpi="150"
       d="m 47.490822,55.821079 a 1.0940576,1.0942342 0 0 1 1.094057,1.093858 1.0940576,1.0942342 0 0 1 -1.093303,1.094611 1.0940576,1.0942342 0 0 1 -1.094811,-1.093103 1.0940576,1.0942342 0 0 1 1.092548,-1.095364" />
    <text
       xml:space="preserve"
       style="font-size:2.57px;line-height:1.25;font-family:sans-serif;stroke-width:0.160625"
       x="39.544411"
       y="57.853622"
       id="text113275-7-9-4-8"><tspan
         sodipodi:role="line"
         id="tspan113273-8-0-6-0"
         style="font-size:2.57px;stroke-width:0.160625"
         x="39.544411"
         y="57.853622">SDA</tspan></text>
    <text
       xml:space="preserve"
       style="font-size:2.57px;line-height:1.25;font-family:sans-serif;stroke-width:0.160625"
       x="40.002441"
       y="50.663628"
       id="text113275-78-6-6"><tspan
         sodipodi:role="line"
         id="tspan113273-2-2-6"
         style="font-size:2.57px;stroke-width:0.160625"
         x="40.002441"
         y="50.663628">SCL</tspan></text>
    <path
       style="opacity:0.998;fill:#000000;fill-opacity:1;stroke:none;stroke-width:4.15748"
       id="path3965-097-1-2"
       sodipodi:type="arc"
       sodipodi:cx="47.264412"
       sodipodi:cy="65.209534"
       sodipodi:rx="1.0940576"
       sodipodi:ry="1.0942342"
       sodipodi:start="4.712389"
       sodipodi:end="4.7110102"
       sodipodi:open="true"
       sodipodi:arc-type="arc"
       inkscape:export-filename="/home/willy/Projects/datalogger/datasheets/ESP8266_display.png"
       inkscape:export-xdpi="150"
       inkscape:export-ydpi="150"
       d="m 47.264412,64.115299 a 1.0940576,1.0942342 0 0 1 1.094057,1.093858 1.0940576,1.0942342 0 0 1 -1.093303,1.094611 1.0940576,1.0942342 0 0 1 -1.094811,-1.093103 1.0940576,1.0942342 0 0 1 1.092548,-1.095364" />
    <path
       style="opacity:0.998;fill:#000000;fill-opacity:1;stroke:none;stroke-width:4.15748"
       id="path3965-097-1-2-2"
       sodipodi:type="arc"
       sodipodi:cx="47.288277"
       sodipodi:cy="72.996826"
       sodipodi:rx="1.0940576"
       sodipodi:ry="1.0942342"
       sodipodi:start="4.712389"
       sodipodi:end="4.7110102"
       sodipodi:open="true"
       sodipodi:arc-type="arc"
       inkscape:export-filename="/home/willy/Projects/datalogger/datasheets/ESP8266_display.png"
       inkscape:export-xdpi="150"
       inkscape:export-ydpi="150"
       d="m 47.288277,71.902592 a 1.0940576,1.0942342 0 0 1 1.094057,1.093857 1.0940576,1.0942342 0 0 1 -1.093303,1.094611 1.0940576,1.0942342 0 0 1 -1.094811,-1.093102 1.0940576,1.0942342 0 0 1 1.092548,-1.095365" />
    <text
       xml:space="preserve"
       style="font-size:2.57px;line-height:1.25;font-family:sans-serif;stroke-width:0.160625"
       x="41.474419"
       y="65.906586"
       id="text113275-78-6-6-0"><tspan
         sodipodi:role="line"
         id="tspan113273-2-2-6-1"
         style="font-size:2.57px;stroke-width:0.160625"
         x="41.474419"
         y="65.906586">3V</tspan></text>
    <text
       xml:space="preserve"
       style="font-size:2.57px;line-height:1.25;font-family:sans-serif;stroke-width:0.160625"
       x="39.105202"
       y="73.721268"
       id="text113275-78-6-6-03"><tspan
         sodipodi:role="line"
         id="tspan113273-2-2-6-4"
         style="font-size:2.57px;stroke-width:0.160625"
         x="39.105202"
         y="73.721268">GND</tspan></text>
    <g
       id="g270063"
       transform="matrix(0.4709451,0,0,0.4709451,18.085005,10.371799)">
      <g
         clip-path="url(#r)"
         id="g270036">
        <rect
           width="27"
           height="20"
           fill="#555555"
           id="rect270030"
           x="0"
           y="0" />
        <rect
           x="27"
           width="27"
           height="20"
           fill="#97ca00"
           id="rect270032"
           y="0" />
        <rect
           width="54"
           height="20"
           fill="url(#s)"
           id="rect270034"
           x="0"
           y="0" />
      </g>
      <g
         fill="#ffffff"
         text-anchor="middle"
         font-family="Verdana, Geneva, 'DejaVu Sans', sans-serif"
         text-rendering="geometricPrecision"
         font-size="110px"
         id="g270046">
        <text
           aria-hidden="true"
           x="145"
           y="150"
           fill="#010101"
           fill-opacity="0.3"
           transform="scale(0.1)"
           textLength="170"
           id="text270038"
           lengthAdjust="spacing">ver</text>
        <text
           x="145"
           y="140"
           transform="scale(0.1)"
           fill="#ffffff"
           textLength="170"
           id="text270040"
           lengthAdjust="spacing">ver</text>
        <text
           aria-hidden="true"
           x="395"
           y="150"
           fill="#010101"
           fill-opacity="0.3"
           transform="scale(0.1)"
           textLength="170"
           id="text270042"
           lengthAdjust="spacing">1.0</text>
        <text
           x="395"
           y="140"
           transform="scale(0.1)"
           fill="#ffffff"
           textLength="170"
           id="text270044"
           lengthAdjust="spacing">1.0</text>
      </g>
    </g>
    <text
       xml:space="preserve"
       style="font-size:8.46667px;line-height:1.25;font-family:sans-serif;word-spacing:0px;stroke-width:0.264583"
       x="48.966221"
       y="18.027292"
       id="text329820"><tspan
         sodipodi:role="line"
         id="tspan329818"
         style="font-size:8.46667px;stroke-width:0.264583"
         x="48.966221"
         y="18.027292">Placa 2</tspan></text>
    <path
       style="fill:none;stroke:#000000;stroke-width:0.912;stroke-linecap:butt;stroke-linejoin:miter;stroke-miterlimit:4;stroke-dasharray:none;stroke-opacity:1"
       d="m 47.286768,72.948356 102.778862,0 0.0603,-30.413147"
       id="path318893"
       sodipodi:nodetypes="ccc" />
    <g
       id="g101570-4"
       transform="matrix(0.8082094,0,0,0.8082094,-96.452861,18.446671)">
      <g
         id="g33955">
        <rect
           style="opacity:0.998;fill:#beffff;fill-opacity:1;stroke:#727272;stroke-width:1.35948;stroke-miterlimit:4;stroke-dasharray:none;stroke-opacity:1"
           id="rect55799-4-3-3"
           width="61.569489"
           height="22.883486"
           x="260.70712"
           y="77.539833"
           ry="4.2630653" />
        <text
           xml:space="preserve"
           style="font-size:8.49386px;line-height:1.25;font-family:sans-serif;fill:#000000;stroke-width:0.132717"
           x="268.67706"
           y="91.663414"
           id="text11759-7-29-9-6"><tspan
             sodipodi:role="line"
             id="tspan11757-2-09-6-7"
             style="fill:#000000;stroke-width:0.132717"
             x="268.67706"
             y="91.663414">Luxómetro</tspan></text>
        <text
           xml:space="preserve"
           style="font-size:5.12696px;line-height:1.25;font-family:sans-serif;stroke-width:0.0801091"
           x="280.59082"
           y="98.575249"
           id="text4509-9-8-5"
           inkscape:transform-center-x="-0.31306121"
           inkscape:transform-center-y="4.666257"><tspan
             sodipodi:role="line"
             id="tspan4507-3-75-3"
             style="stroke-width:0.0801091"
             x="280.59082"
             y="98.575249">TSL2591</tspan></text>
      </g>
    </g>
    <g
       id="g33965"
       transform="translate(42.055134,-51.634694)">
      <rect
         style="opacity:0.998;fill:#beffff;fill-opacity:1;stroke:#727272;stroke-width:1.35948;stroke-miterlimit:4;stroke-dasharray:none;stroke-opacity:1"
         id="rect55799-4-3"
         width="61.569489"
         height="22.883486"
         x="191.6897"
         y="77.633339"
         ry="4.2630653"
         transform="matrix(0.8082094,0,0,0.8082094,-82.851091,12.265276)" />
      <text
         xml:space="preserve"
         style="font-size:8.49386px;line-height:1.25;font-family:sans-serif;fill:#000000;stroke-width:0.132717"
         x="197.16083"
         y="91.75692"
         id="text11759-7-29-9"
         transform="matrix(0.8082094,0,0,0.8082094,-82.851091,12.265276)"><tspan
           sodipodi:role="line"
           id="tspan11757-2-09-6"
           style="fill:#000000;stroke-width:0.132717"
           x="197.16083"
           y="91.75692">Termómetro</tspan></text>
      <text
         xml:space="preserve"
         style="font-size:4.14366px;line-height:1.25;font-family:sans-serif;stroke-width:0.0647449"
         x="90.359993"
         y="92.0103"
         id="text4509-9-8"
         inkscape:transform-center-x="-0.31306121"
         inkscape:transform-center-y="4.666257"><tspan
           sodipodi:role="line"
           id="tspan4507-3-75"
           style="stroke-width:0.0647449"
           x="90.359993"
           y="92.0103">ATH10</tspan></text>
    </g>
    <path
       style="fill:none;stroke:#d4aa00;stroke-width:0.912;stroke-linecap:butt;stroke-linejoin:miter;stroke-opacity:1;stroke-miterlimit:4;stroke-dasharray:none"
       d="M 126.55012,49.704587 V 80.92024 l -0.01,-0.04709"
       id="path34513" />
    <path
       style="opacity:0.998;fill:#000000;fill-opacity:1;stroke:none;stroke-width:4.15748"
       id="path3965-097-1-2-71-5"
       sodipodi:type="arc"
       sodipodi:cx="126.55299"
       sodipodi:cy="49.747246"
       sodipodi:rx="1.0940576"
       sodipodi:ry="1.0942342"
       sodipodi:start="4.712389"
       sodipodi:end="4.7110102"
       sodipodi:open="true"
       sodipodi:arc-type="arc"
       inkscape:export-filename="/home/willy/Projects/datalogger/datasheets/ESP8266_display.png"
       inkscape:export-xdpi="150"
       inkscape:export-ydpi="150"
       d="m 126.55299,48.653012 a 1.0940576,1.0942342 0 0 1 1.09406,1.093857 1.0940576,1.0942342 0 0 1 -1.0933,1.094611 1.0940576,1.0942342 0 0 1 -1.09481,-1.093103 1.0940576,1.0942342 0 0 1 1.09255,-1.095364" />
    <path
       style="fill:none;stroke:#b3b3b3;stroke-width:0.912;stroke-linecap:butt;stroke-linejoin:miter;stroke-opacity:1;stroke-miterlimit:4;stroke-dasharray:none"
       d="M 133.23229,56.866795 V 81.048012"
       id="path35235" />
    <path
       style="opacity:0.998;fill:#000000;fill-opacity:1;stroke:none;stroke-width:4.15748"
       id="path3965-097-1-2-71-6"
       sodipodi:type="arc"
       sodipodi:cx="133.21954"
       sodipodi:cy="56.843323"
       sodipodi:rx="1.0940576"
       sodipodi:ry="1.0942342"
       sodipodi:start="4.712389"
       sodipodi:end="4.7110102"
       sodipodi:open="true"
       sodipodi:arc-type="arc"
       inkscape:export-filename="/home/willy/Projects/datalogger/datasheets/ESP8266_display.png"
       inkscape:export-xdpi="150"
       inkscape:export-ydpi="150"
       d="m 133.21954,55.749089 a 1.0940576,1.0942342 0 0 1 1.09406,1.093857 1.0940576,1.0942342 0 0 1 -1.0933,1.094611 1.0940576,1.0942342 0 0 1 -1.09481,-1.093103 1.0940576,1.0942342 0 0 1 1.09254,-1.095364" />
    <path
       style="fill:#ff0000;stroke:#ff0000;stroke-width:0.912;stroke-linecap:butt;stroke-linejoin:miter;stroke-opacity:1;stroke-miterlimit:4;stroke-dasharray:none;fill-opacity:1"
       d="M 142.14686,65.161067 V 81.168681"
       id="path35237" />
    <path
       style="fill:none;stroke:#000000;stroke-width:0.912;stroke-linecap:butt;stroke-linejoin:miter;stroke-opacity:1;stroke-miterlimit:4;stroke-dasharray:none"
       d="m 150.06563,72.948355 v 8.085359"
       id="path35239" />
    <path
       style="opacity:0.998;fill:#000000;fill-opacity:1;stroke:none;stroke-width:4.15748"
       id="path3965-097-1-2-71-6-9"
       sodipodi:type="arc"
       sodipodi:cx="142.12335"
       sodipodi:cy="65.179932"
       sodipodi:rx="1.0940576"
       sodipodi:ry="1.0942342"
       sodipodi:start="4.712389"
       sodipodi:end="4.7110102"
       sodipodi:open="true"
       sodipodi:arc-type="arc"
       inkscape:export-filename="/home/willy/Projects/datalogger/datasheets/ESP8266_display.png"
       inkscape:export-xdpi="150"
       inkscape:export-ydpi="150"
       d="m 142.12335,64.085697 a 1.0940576,1.0942342 0 0 1 1.09406,1.093857 1.0940576,1.0942342 0 0 1 -1.0933,1.094612 1.0940576,1.0942342 0 0 1 -1.09481,-1.093103 1.0940576,1.0942342 0 0 1 1.09254,-1.095365" />
    <path
       style="opacity:0.998;fill:#000000;fill-opacity:1;stroke:none;stroke-width:4.15748"
       id="path3965-097-1-2-71-6-1"
       sodipodi:type="arc"
       sodipodi:cx="150.16476"
       sodipodi:cy="72.99514"
       sodipodi:rx="1.0940576"
       sodipodi:ry="1.0942342"
       sodipodi:start="4.712389"
       sodipodi:end="4.7110102"
       sodipodi:open="true"
       sodipodi:arc-type="arc"
       inkscape:export-filename="/home/willy/Projects/datalogger/datasheets/ESP8266_display.png"
       inkscape:export-xdpi="150"
       inkscape:export-ydpi="150"
       d="m 150.16476,71.900906 a 1.0940576,1.0942342 0 0 1 1.09406,1.093857 1.0940576,1.0942342 0 0 1 -1.0933,1.094611 1.0940576,1.0942342 0 0 1 -1.09481,-1.093102 1.0940576,1.0942342 0 0 1 1.09255,-1.095365" />
    <path
       style="opacity:0.998;fill:#000000;fill-opacity:1;stroke:none;stroke-width:4.15748"
       id="path3965-097-1-2-71-6-2"
       sodipodi:type="arc"
       sodipodi:cx="150.13995"
       sodipodi:cy="41.820969"
       sodipodi:rx="1.0940576"
       sodipodi:ry="1.0942342"
       sodipodi:start="4.712389"
       sodipodi:end="4.7110102"
       sodipodi:open="true"
       sodipodi:arc-type="arc"
       inkscape:export-filename="/home/willy/Projects/datalogger/datasheets/ESP8266_display.png"
       inkscape:export-xdpi="150"
       inkscape:export-ydpi="150"
       d="m 150.13995,40.726734 a 1.0940576,1.0942342 0 0 1 1.09406,1.093857 1.0940576,1.0942342 0 0 1 -1.0933,1.094612 1.0940576,1.0942342 0 0 1 -1.09481,-1.093103 1.0940576,1.0942342 0 0 1 1.09255,-1.095365" />
    <path
       style="opacity:0.998;fill:#000000;fill-opacity:1;stroke:none;stroke-width:4.15748"
       id="path3965-097-1-2-71-6-7"
       sodipodi:type="arc"
       sodipodi:cx="142.22133"
       sodipodi:cy="41.885437"
       sodipodi:rx="1.0940576"
       sodipodi:ry="1.0942342"
       sodipodi:start="4.712389"
       sodipodi:end="4.7110102"
       sodipodi:open="true"
       sodipodi:arc-type="arc"
       inkscape:export-filename="/home/willy/Projects/datalogger/datasheets/ESP8266_display.png"
       inkscape:export-xdpi="150"
       inkscape:export-ydpi="150"
       d="m 142.22133,40.791203 a 1.0940576,1.0942342 0 0 1 1.09406,1.093857 1.0940576,1.0942342 0 0 1 -1.09331,1.094611 1.0940576,1.0942342 0 0 1 -1.09481,-1.093102 1.0940576,1.0942342 0 0 1 1.09255,-1.095365" />
    <path
       style="opacity:0.998;fill:#000000;fill-opacity:1;stroke:none;stroke-width:4.15748"
       id="path3965-097-1-2-71-6-0"
       sodipodi:type="arc"
       sodipodi:cx="133.22672"
       sodipodi:cy="41.843903"
       sodipodi:rx="1.0940576"
       sodipodi:ry="1.0942342"
       sodipodi:start="4.712389"
       sodipodi:end="4.7110102"
       sodipodi:open="true"
       sodipodi:arc-type="arc"
       inkscape:export-filename="/home/willy/Projects/datalogger/datasheets/ESP8266_display.png"
       inkscape:export-xdpi="150"
       inkscape:export-ydpi="150"
       d="m 133.22672,40.749668 a 1.0940576,1.0942342 0 0 1 1.09405,1.093857 1.0940576,1.0942342 0 0 1 -1.0933,1.094612 1.0940576,1.0942342 0 0 1 -1.09481,-1.093103 1.0940576,1.0942342 0 0 1 1.09255,-1.095365" />
    <path
       style="opacity:0.998;fill:#000000;fill-opacity:1;stroke:none;stroke-width:4.15748"
       id="path3965-097-1-2-71-6-93"
       sodipodi:type="arc"
       sodipodi:cx="126.66087"
       sodipodi:cy="41.891647"
       sodipodi:rx="1.0940576"
       sodipodi:ry="1.0942342"
       sodipodi:start="4.712389"
       sodipodi:end="4.7110102"
       sodipodi:open="true"
       sodipodi:arc-type="arc"
       inkscape:export-filename="/home/willy/Projects/datalogger/datasheets/ESP8266_display.png"
       inkscape:export-xdpi="150"
       inkscape:export-ydpi="150"
       d="m 126.66087,40.797413 a 1.0940576,1.0942342 0 0 1 1.09406,1.093857 1.0940576,1.0942342 0 0 1 -1.0933,1.094611 1.0940576,1.0942342 0 0 1 -1.09481,-1.093102 1.0940576,1.0942342 0 0 1 1.09254,-1.095365" />
    <path
       style="opacity:0.998;fill:#000000;fill-opacity:1;stroke:none;stroke-width:4.15748"
       id="path3965-097-1-2-71-6-2-6"
       sodipodi:type="arc"
       sodipodi:cx="150.09007"
       sodipodi:cy="81.128525"
       sodipodi:rx="1.0940576"
       sodipodi:ry="1.0942342"
       sodipodi:start="4.712389"
       sodipodi:end="4.7110102"
       sodipodi:open="true"
       sodipodi:arc-type="arc"
       inkscape:export-filename="/home/willy/Projects/datalogger/datasheets/ESP8266_display.png"
       inkscape:export-xdpi="150"
       inkscape:export-ydpi="150"
       d="m 150.09007,80.034291 a 1.0940576,1.0942342 0 0 1 1.09406,1.093857 1.0940576,1.0942342 0 0 1 -1.0933,1.094611 1.0940576,1.0942342 0 0 1 -1.09481,-1.093103 1.0940576,1.0942342 0 0 1 1.09254,-1.095364" />
    <path
       style="opacity:0.998;fill:#000000;fill-opacity:1;stroke:none;stroke-width:4.15748"
       id="path3965-097-1-2-71-6-7-0"
       sodipodi:type="arc"
       sodipodi:cx="142.17154"
       sodipodi:cy="81.192993"
       sodipodi:rx="1.0940576"
       sodipodi:ry="1.0942342"
       sodipodi:start="4.712389"
       sodipodi:end="4.7110102"
       sodipodi:open="true"
       sodipodi:arc-type="arc"
       inkscape:export-filename="/home/willy/Projects/datalogger/datasheets/ESP8266_display.png"
       inkscape:export-xdpi="150"
       inkscape:export-ydpi="150"
       d="m 142.17154,80.098759 a 1.0940576,1.0942342 0 0 1 1.09406,1.093857 1.0940576,1.0942342 0 0 1 -1.09331,1.094611 1.0940576,1.0942342 0 0 1 -1.09481,-1.093102 1.0940576,1.0942342 0 0 1 1.09255,-1.095365" />
    <path
       style="opacity:0.998;fill:#000000;fill-opacity:1;stroke:none;stroke-width:4.15748"
       id="path3965-097-1-2-71-6-0-6"
       sodipodi:type="arc"
       sodipodi:cx="133.17703"
       sodipodi:cy="81.151459"
       sodipodi:rx="1.0940576"
       sodipodi:ry="1.0942342"
       sodipodi:start="4.712389"
       sodipodi:end="4.7110102"
       sodipodi:open="true"
       sodipodi:arc-type="arc"
       inkscape:export-filename="/home/willy/Projects/datalogger/datasheets/ESP8266_display.png"
       inkscape:export-xdpi="150"
       inkscape:export-ydpi="150"
       d="m 133.17703,80.057225 a 1.0940576,1.0942342 0 0 1 1.09406,1.093857 1.0940576,1.0942342 0 0 1 -1.0933,1.094611 1.0940576,1.0942342 0 0 1 -1.09481,-1.093103 1.0940576,1.0942342 0 0 1 1.09254,-1.095364" />
    <path
       style="opacity:0.998;fill:#000000;fill-opacity:1;stroke:none;stroke-width:4.15748"
       id="path3965-097-1-2-71-6-93-2"
       sodipodi:type="arc"
       sodipodi:cx="126.61126"
       sodipodi:cy="81.199203"
       sodipodi:rx="1.0940576"
       sodipodi:ry="1.0942342"
       sodipodi:start="4.712389"
       sodipodi:end="4.7110102"
       sodipodi:open="true"
       sodipodi:arc-type="arc"
       inkscape:export-filename="/home/willy/Projects/datalogger/datasheets/ESP8266_display.png"
       inkscape:export-xdpi="150"
       inkscape:export-ydpi="150"
       d="m 126.61126,80.104969 a 1.0940576,1.0942342 0 0 1 1.09406,1.093857 1.0940576,1.0942342 0 0 1 -1.09331,1.094611 1.0940576,1.0942342 0 0 1 -1.09481,-1.093102 1.0940576,1.0942342 0 0 1 1.09255,-1.095365" />
  </g>
</svg>
