(kicad_symbol_lib (version 20211014) (generator kicad_symbol_editor)
  (symbol "AHT10" (pin_numbers hide) (in_bom yes) (on_board yes)
    (property "Reference" "M" (id 0) (at -15.24 -8.89 0)
      (effects (font (size 1.27 1.27)))
    )
    (property "Value" "AHT10" (id 1) (at -12.7 0 0)
      (effects (font (size 1.27 1.27)))
    )
    (property "Footprint" "ESP:AHT10" (id 2) (at -8.89 -11.43 0)
      (effects (font (size 1.27 1.27)) hide)
    )
    (property "Datasheet" "" (id 3) (at -13.97 -5.08 0)
      (effects (font (size 1.27 1.27)) hide)
    )
    (property "ki_keywords" "sensor, temperature, humidity, aht10, esp" (id 4) (at 0 0 0)
      (effects (font (size 1.27 1.27)) hide)
    )
    (property "ki_description" "Sensor Temperatura y Humedad" (id 5) (at 0 0 0)
      (effects (font (size 1.27 1.27)) hide)
    )
    (symbol "AHT10_0_1"
      (rectangle (start -16.51 2.54) (end -2.54 -10.16)
        (stroke (width 0) (type default) (color 0 0 0 0))
        (fill (type none))
      )
    )
    (symbol "AHT10_1_1"
      (pin input line (at 0 0 180) (length 2.54)
        (name "Vin" (effects (font (size 1.27 1.27))))
        (number "1" (effects (font (size 1.27 1.27))))
      )
      (pin input line (at 0 -2.54 180) (length 2.54)
        (name "GND" (effects (font (size 1.27 1.27))))
        (number "2" (effects (font (size 1.27 1.27))))
      )
      (pin input line (at 0 -5.08 180) (length 2.54)
        (name "SCL" (effects (font (size 1.27 1.27))))
        (number "3" (effects (font (size 1.27 1.27))))
      )
      (pin bidirectional line (at 0 -7.62 180) (length 2.54)
        (name "SDA" (effects (font (size 1.27 1.27))))
        (number "4" (effects (font (size 1.27 1.27))))
      )
      (pin no_connect line (at -19.05 -3.81 0) (length 2.54) hide
        (name "x" (effects (font (size 1.27 1.27))))
        (number "5" (effects (font (size 1.27 1.27))))
      )
    )
  )
  (symbol "BMP390" (in_bom yes) (on_board yes)
    (property "Reference" "M" (id 0) (at -24.13 -19.05 0)
      (effects (font (size 1.27 1.27)))
    )
    (property "Value" "BMP390" (id 1) (at -21.59 0 0)
      (effects (font (size 1.27 1.27)))
    )
    (property "Footprint" "ESP:BMP390" (id 2) (at -20.32 -21.59 0)
      (effects (font (size 1.27 1.27)) hide)
    )
    (property "Datasheet" "" (id 3) (at -24.13 -19.05 0)
      (effects (font (size 1.27 1.27)) hide)
    )
    (symbol "BMP390_0_1"
      (rectangle (start -2.54 2.54) (end -26.67 -20.32)
        (stroke (width 0) (type default) (color 0 0 0 0))
        (fill (type none))
      )
    )
    (symbol "BMP390_1_1"
      (pin input line (at 0 0 180) (length 2.54)
        (name "INT" (effects (font (size 1.27 1.27))))
        (number "1" (effects (font (size 1.27 1.27))))
      )
      (pin input line (at 0 -2.54 180) (length 2.54)
        (name "CS" (effects (font (size 1.27 1.27))))
        (number "2" (effects (font (size 1.27 1.27))))
      )
      (pin input line (at 0 -5.08 180) (length 2.54)
        (name "SDA" (effects (font (size 1.27 1.27))))
        (number "3" (effects (font (size 1.27 1.27))))
      )
      (pin input line (at 0 -7.62 180) (length 2.54)
        (name "SDO" (effects (font (size 1.27 1.27))))
        (number "4" (effects (font (size 1.27 1.27))))
      )
      (pin input line (at 0 -10.16 180) (length 2.54)
        (name "SCL" (effects (font (size 1.27 1.27))))
        (number "5" (effects (font (size 1.27 1.27))))
      )
      (pin input line (at 0 -12.7 180) (length 2.54)
        (name "GND" (effects (font (size 1.27 1.27))))
        (number "6" (effects (font (size 1.27 1.27))))
      )
      (pin input line (at 0 -15.24 180) (length 2.54)
        (name "3V" (effects (font (size 1.27 1.27))))
        (number "7" (effects (font (size 1.27 1.27))))
      )
      (pin input line (at 0 -17.78 180) (length 2.54)
        (name "Vin" (effects (font (size 1.27 1.27))))
        (number "8" (effects (font (size 1.27 1.27))))
      )
      (pin no_connect line (at -29.21 -8.89 0) (length 2.54) hide
        (name "x" (effects (font (size 1.27 1.27))))
        (number "9" (effects (font (size 1.27 1.27))))
      )
    )
  )
  (symbol "DK-W8266" (pin_numbers hide) (in_bom yes) (on_board yes)
    (property "Reference" "U1" (id 0) (at -21.59 -15.24 0)
      (effects (font (size 1.27 1.27)))
    )
    (property "Value" "DK-W8266" (id 1) (at -21.59 -17.78 0)
      (effects (font (size 1.27 1.27)))
    )
    (property "Footprint" "ESP:DK-W8266" (id 2) (at -33.02 -35.56 0)
      (effects (font (size 1.27 1.27)) hide)
    )
    (property "Datasheet" "" (id 3) (at -39.37 -34.29 0)
      (effects (font (size 1.27 1.27)) hide)
    )
    (symbol "DK-W8266_0_1"
      (rectangle (start -40.64 2.54) (end -2.54 -36.83)
        (stroke (width 0) (type default) (color 0 0 0 0))
        (fill (type none))
      )
    )
    (symbol "DK-W8266_1_1"
      (pin input line (at 0 0 180) (length 2.54)
        (name "A0" (effects (font (size 1.27 1.27))))
        (number "1" (effects (font (size 1.27 1.27))))
      )
      (pin bidirectional line (at 0 -34.29 180) (length 2.54)
        (name "D8" (effects (font (size 1.27 1.27))))
        (number "10" (effects (font (size 1.27 1.27))))
      )
      (pin output line (at -31.75 5.08 270) (length 2.54)
        (name "Enable" (effects (font (size 1.27 1.27))))
        (number "11" (effects (font (size 1.27 1.27))))
      )
      (pin output line (at -26.67 5.08 270) (length 2.54)
        (name "Reset" (effects (font (size 1.27 1.27))))
        (number "12" (effects (font (size 1.27 1.27))))
      )
      (pin output line (at -22.86 5.08 270) (length 2.54)
        (name "Internal_1" (effects (font (size 1.27 1.27))))
        (number "13" (effects (font (size 1.27 1.27))))
      )
      (pin output line (at -19.05 5.08 270) (length 2.54)
        (name "Internal_2" (effects (font (size 1.27 1.27))))
        (number "14" (effects (font (size 1.27 1.27))))
      )
      (pin output line (at -15.24 5.08 270) (length 2.54)
        (name "Internal_3" (effects (font (size 1.27 1.27))))
        (number "15" (effects (font (size 1.27 1.27))))
      )
      (pin output line (at -11.43 5.08 270) (length 2.54)
        (name "Internal_4" (effects (font (size 1.27 1.27))))
        (number "16" (effects (font (size 1.27 1.27))))
      )
      (pin power_out line (at -19.05 -39.37 90) (length 2.54)
        (name "GND" (effects (font (size 1.27 1.27))))
        (number "17" (effects (font (size 1.27 1.27))))
      )
      (pin input line (at -19.05 -39.37 90) (length 2.54) hide
        (name "GND" (effects (font (size 1.27 1.27))))
        (number "18" (effects (font (size 1.27 1.27))))
      )
      (pin input line (at -19.05 -39.37 90) (length 2.54) hide
        (name "GND" (effects (font (size 1.27 1.27))))
        (number "19" (effects (font (size 1.27 1.27))))
      )
      (pin bidirectional line (at 0 -3.81 180) (length 2.54)
        (name "D0" (effects (font (size 1.27 1.27))))
        (number "2" (effects (font (size 1.27 1.27))))
      )
      (pin input line (at -19.05 -39.37 90) (length 2.54) hide
        (name "GND" (effects (font (size 1.27 1.27))))
        (number "20" (effects (font (size 1.27 1.27))))
      )
      (pin power_out line (at -43.18 -22.86 0) (length 2.54)
        (name "3V" (effects (font (size 1.27 1.27))))
        (number "21" (effects (font (size 1.27 1.27))))
      )
      (pin input line (at -43.18 -22.86 0) (length 2.54) hide
        (name "3V" (effects (font (size 1.27 1.27))))
        (number "22" (effects (font (size 1.27 1.27))))
      )
      (pin power_out line (at -43.18 -11.43 0) (length 2.54)
        (name "5V" (effects (font (size 1.27 1.27))))
        (number "23" (effects (font (size 1.27 1.27))))
      )
      (pin input line (at -43.18 -11.43 0) (length 2.54) hide
        (name "5V" (effects (font (size 1.27 1.27))))
        (number "24" (effects (font (size 1.27 1.27))))
      )
      (pin bidirectional line (at 0 -7.62 180) (length 2.54)
        (name "D1" (effects (font (size 1.27 1.27))))
        (number "3" (effects (font (size 1.27 1.27))))
      )
      (pin bidirectional line (at 0 -11.43 180) (length 2.54)
        (name "D2" (effects (font (size 1.27 1.27))))
        (number "4" (effects (font (size 1.27 1.27))))
      )
      (pin bidirectional line (at 0 -15.24 180) (length 2.54)
        (name "D3" (effects (font (size 1.27 1.27))))
        (number "5" (effects (font (size 1.27 1.27))))
      )
      (pin bidirectional line (at 0 -19.05 180) (length 2.54)
        (name "D4" (effects (font (size 1.27 1.27))))
        (number "6" (effects (font (size 1.27 1.27))))
      )
      (pin bidirectional line (at 0 -22.86 180) (length 2.54)
        (name "D5" (effects (font (size 1.27 1.27))))
        (number "7" (effects (font (size 1.27 1.27))))
      )
      (pin bidirectional line (at 0 -26.67 180) (length 2.54)
        (name "D6" (effects (font (size 1.27 1.27))))
        (number "8" (effects (font (size 1.27 1.27))))
      )
      (pin bidirectional line (at 0 -30.48 180) (length 2.54)
        (name "D7" (effects (font (size 1.27 1.27))))
        (number "9" (effects (font (size 1.27 1.27))))
      )
    )
  )
  (symbol "SD_Card" (pin_numbers hide) (in_bom yes) (on_board yes)
    (property "Reference" "U2" (id 0) (at -22.86 -19.05 0)
      (effects (font (size 1.27 1.27)) (justify right))
    )
    (property "Value" "SD_Card" (id 1) (at -12.7 -6.35 0)
      (effects (font (size 1.27 1.27)) (justify right))
    )
    (property "Footprint" "ESP:SD_CARD" (id 2) (at -20.32 5.08 0)
      (effects (font (size 1.27 1.27)) hide)
    )
    (property "Datasheet" "" (id 3) (at 0 -1.27 0)
      (effects (font (size 1.27 1.27)) hide)
    )
    (symbol "SD_Card_0_1"
      (rectangle (start -26.67 2.54) (end -2.54 -21.59)
        (stroke (width 0) (type default) (color 0 0 0 0))
        (fill (type none))
      )
    )
    (symbol "SD_Card_1_1"
      (pin input line (at 0 0 180) (length 2.54)
        (name "CS" (effects (font (size 1.27 1.27))))
        (number "1" (effects (font (size 1.27 1.27))))
      )
      (pin input line (at 0 -3.81 180) (length 2.54)
        (name "SCK" (effects (font (size 1.27 1.27))))
        (number "2" (effects (font (size 1.27 1.27))))
      )
      (pin input line (at 0 -7.62 180) (length 2.54)
        (name "MOSI" (effects (font (size 1.27 1.27))))
        (number "3" (effects (font (size 1.27 1.27))))
      )
      (pin input line (at 0 -11.43 180) (length 2.54)
        (name "MISO" (effects (font (size 1.27 1.27))))
        (number "4" (effects (font (size 1.27 1.27))))
      )
      (pin input line (at 0 -15.24 180) (length 2.54)
        (name "VCC" (effects (font (size 1.27 1.27))))
        (number "5" (effects (font (size 1.27 1.27))))
      )
      (pin input line (at 0 -19.05 180) (length 2.54)
        (name "GND" (effects (font (size 1.27 1.27))))
        (number "6" (effects (font (size 1.27 1.27))))
      )
      (pin no_connect line (at -29.21 -10.16 0) (length 2.54) hide
        (name "x" (effects (font (size 1.27 1.27))))
        (number "7" (effects (font (size 1.27 1.27))))
      )
    )
  )
  (symbol "SW_BTN" (pin_numbers hide) (pin_names hide) (in_bom yes) (on_board yes)
    (property "Reference" "SW" (id 0) (at 0 6.35 0)
      (effects (font (size 1.27 1.27)))
    )
    (property "Value" "SW_BTN" (id 1) (at 0 3.81 0)
      (effects (font (size 1.27 1.27)))
    )
    (property "Footprint" "ESP:SW_BTN" (id 2) (at 0 3.81 0)
      (effects (font (size 1.27 1.27)) hide)
    )
    (property "Datasheet" "" (id 3) (at 0 3.81 0)
      (effects (font (size 1.27 1.27)) hide)
    )
    (symbol "SW_BTN_0_1"
      (circle (center -2.032 -1.27) (radius 0.508)
        (stroke (width 0) (type default) (color 0 0 0 0))
        (fill (type none))
      )
      (polyline
        (pts
          (xy 0 0)
          (xy 0 1.778)
        )
        (stroke (width 0) (type default) (color 0 0 0 0))
        (fill (type none))
      )
      (polyline
        (pts
          (xy 2.54 0)
          (xy -2.54 0)
        )
        (stroke (width 0) (type default) (color 0 0 0 0))
        (fill (type none))
      )
      (circle (center 2.032 -1.27) (radius 0.508)
        (stroke (width 0) (type default) (color 0 0 0 0))
        (fill (type none))
      )
      (pin passive line (at -5.08 -1.27 0) (length 2.54)
        (name "A" (effects (font (size 1.27 1.27))))
        (number "1" (effects (font (size 1.27 1.27))))
      )
      (pin passive line (at 5.08 -1.27 180) (length 2.54)
        (name "B" (effects (font (size 1.27 1.27))))
        (number "3" (effects (font (size 1.27 1.27))))
      )
    )
    (symbol "SW_BTN_1_1"
      (pin passive line (at -5.08 -1.27 0) (length 2.54) hide
        (name "A" (effects (font (size 1.27 1.27))))
        (number "2" (effects (font (size 1.27 1.27))))
      )
      (pin passive line (at 5.08 -1.27 180) (length 2.54) hide
        (name "B" (effects (font (size 1.27 1.27))))
        (number "4" (effects (font (size 1.27 1.27))))
      )
    )
  )
  (symbol "TSL2591" (in_bom yes) (on_board yes)
    (property "Reference" "M" (id 0) (at -17.78 -15.24 0)
      (effects (font (size 1.27 1.27)))
    )
    (property "Value" "TSL2591" (id 1) (at -13.97 1.27 0)
      (effects (font (size 1.27 1.27)))
    )
    (property "Footprint" "ESP:TSL2591" (id 2) (at -10.16 5.08 0)
      (effects (font (size 1.27 1.27)) hide)
    )
    (property "Datasheet" "" (id 3) (at -12.7 3.81 0)
      (effects (font (size 1.27 1.27)) hide)
    )
    (symbol "TSL2591_0_1"
      (rectangle (start -19.05 3.81) (end -2.54 -16.51)
        (stroke (width 0) (type default) (color 0 0 0 0))
        (fill (type none))
      )
      (rectangle (start -1.27 3.81) (end -1.27 3.81)
        (stroke (width 0) (type default) (color 0 0 0 0))
        (fill (type none))
      )
    )
    (symbol "TSL2591_1_1"
      (pin input line (at 0 0 180) (length 2.54)
        (name "SCL" (effects (font (size 1.27 1.27))))
        (number "1" (effects (font (size 1.27 1.27))))
      )
      (pin input line (at 0 -2.54 180) (length 2.54)
        (name "SDA" (effects (font (size 1.27 1.27))))
        (number "2" (effects (font (size 1.27 1.27))))
      )
      (pin input line (at 0 -5.08 180) (length 2.54)
        (name "INT" (effects (font (size 1.27 1.27))))
        (number "3" (effects (font (size 1.27 1.27))))
      )
      (pin input line (at 0 -7.62 180) (length 2.54)
        (name "3V" (effects (font (size 1.27 1.27))))
        (number "4" (effects (font (size 1.27 1.27))))
      )
      (pin input line (at 0 -10.16 180) (length 2.54)
        (name "GND" (effects (font (size 1.27 1.27))))
        (number "5" (effects (font (size 1.27 1.27))))
      )
      (pin input line (at 0 -12.7 180) (length 2.54)
        (name "Vin" (effects (font (size 1.27 1.27))))
        (number "6" (effects (font (size 1.27 1.27))))
      )
      (pin no_connect line (at -21.59 -6.35 0) (length 2.54) hide
        (name "x" (effects (font (size 1.27 1.27))))
        (number "7" (effects (font (size 1.27 1.27))))
      )
    )
  )
)
